^C:\USERS\BALEX\DESKTOP\PROIECT\PROIECT\GLAD.C
C:\USERS\BALEX\DESKTOP\PROIECT\PROIECT\X64\DEBUG\VC141.PDB
C:\USERS\BALEX\DESKTOP\PROIECT\PROIECT\X64\DEBUG\VC141.IDB
C:\USERS\BALEX\DESKTOP\PROIECT\PROIECT\X64\DEBUG\GLAD.OBJ
^C:\USERS\BALEX\DESKTOP\PROIECT\PROIECT\MAIN.CPP
C:\USERS\BALEX\DESKTOP\PROIECT\PROIECT\X64\DEBUG\VC141.PDB
C:\USERS\BALEX\DESKTOP\PROIECT\PROIECT\X64\DEBUG\VC141.IDB
C:\USERS\BALEX\DESKTOP\PROIECT\PROIECT\X64\DEBUG\MAIN.OBJ
